{
 "compilerOptions": {
  "baseUrl": ".",
  "paths": {
   "*": [
    "../../root/.cache/hugo_cache/modules/filecache/modules/pkg/mod/github.com/hugo-toha/toha/v4@v4.0.0-20230728200917-0e12222cc3bd/assets/*"
   ]
  }
 }
}